IS 6489: Module 7 | Airbnb
…
# Look more closely at neighbourhood_cleansed
a %>% 
  count(neighbourhood_cleansed) %>% 
  mutate(cum_count = seq(1, length(neighbourhood_cleansed)))

## # A tibble: 35 x 3
##    neighbourhood_cleansed     n cum_count
##    <fct>                  <int>     <int>
##  1 Bayview                   36         1
##  2 Bernal Heights           105         2
##  3 Castro/Upper Market      116         3
##  4 Chinatown                 31         4
##  5 Crocker Amazon             8         5
##  6 Diamond Heights            3         6
##  7 Downtown/Civic Center    144         7
##  8 Excelsior                 49         8
##  9 Financial District        30         9
## 10 Glen Park                 17        10
## #  with 25 more rows

# 35 neighborhoods

# Look more closely at property_type
a %>% 
  count(property_type) 

## # A tibble: 22 x 2
##    property_type         n
##    <fct>             <int>
##  1 Aparthotel            8
##  2 Apartment           747
##  3 Bed and breakfast    13
##  4 Boat                  1
##  5 Boutique hotel       72
##  6 Bungalow              6
##  7 Condominium         206
##  8 Cottage               1
##  9 Earth house           1
## 10 Guest suite         170
## #  with 12 more rows
…
